{
  "1000": {
    "msg": {
      "EN": "Please provide firm Id."
    }
  },
  "1001": {
    "msg": {
      "EN": "Invalid firm Id."
    }
  },
  "1002": {
    "msg": {
      "EN": "Please provide at least one project Id."
    }
  },
  "1003": {
    "msg": {
      "EN": ""
    }
  },
  "1004": {
    "msg": {
      "EN": "Please provide at least one role Id."
    }
  },
  "1005": {
    "msg": {
      "EN": ""
    }
  },
  "1006": {
    "msg": {
      "EN": "Please provide week Id."
    }
  },
  "1007": {
    "msg": {
      "EN": "Invalid week Id."
    }
  },
  "1008": {
    "msg": {
      "EN": "Please provide week year."
    }
  },
  "1009": {
    "msg": {
      "EN": "Invalid week year."
    }
  },
  "1010": {
    "msg": {
      "EN": "Invalid project Id(s)."
    }
  },
  "1011": {
    "msg": {
      "EN": "Invalid role Id(s)."
    }
  },
  "1012": {
    "msg": {
      "EN": "Invalid reviewer Id(s)."
    }
  },
  "1013": {
    "msg": {
      "EN": "Please provide timezone."
    }
  },
  "1014": {
    "msg": {
      "EN": "Invalid timezone."
    }
  }
}